…
deaths <- av %>% select(
  URL,
  Name.Alias,
  starts_with("Death")
) %>% pivot_longer(
  cols = Death1:Death5,
  names_to = "Time",
  values_to = "Died"
)
deaths
```

    ## # A tibble: 865 × 4
    ##    URL                                                Name.Alias     Time  Died 
    ##    <chr>                                              <chr>          <chr> <chr>
    ##  1 http://marvel.wikia.com/Henry_Pym_(Earth-616)      "Henry Jonath… Deat… "YES"
    ##  2 http://marvel.wikia.com/Henry_Pym_(Earth-616)      "Henry Jonath… Deat… ""   
    ##  3 http://marvel.wikia.com/Henry_Pym_(Earth-616)      "Henry Jonath… Deat… ""   
    ##  4 http://marvel.wikia.com/Henry_Pym_(Earth-616)      "Henry Jonath… Deat… ""   
    ##  5 http://marvel.wikia.com/Henry_Pym_(Earth-616)      "Henry Jonath… Deat… ""   
    ##  6 http://marvel.wikia.com/Janet_van_Dyne_(Earth-616) "Janet van Dy… Deat… "YES"
    ##  7 http://marvel.wikia.com/Janet_van_Dyne_(Earth-616) "Janet van Dy… Deat… ""   
    ##  8 http://marvel.wikia.com/Janet_van_Dyne_(Earth-616) "Janet van Dy… Deat… ""   
    ##  9 http://marvel.wikia.com/Janet_van_Dyne_(Earth-616) "Janet van Dy… Deat… ""   
    ## 10 http://marvel.wikia.com/Janet_van_Dyne_(Earth-616) "Janet van Dy… Deat… ""   
    ## # ℹ 855 more rows
…
``` r
returns <- av %>% select(
  URL,
  Name.Alias,
  starts_with("Return")
) %>% pivot_longer(
  cols = Return1:Return5,
  names_to = "Time",
  values_to = "Return"
)
returns
```

    ## # A tibble: 865 × 4
    ##    URL                                                Name.Alias    Time  Return
    ##    <chr>                                              <chr>         <chr> <chr> 
    ##  1 http://marvel.wikia.com/Henry_Pym_(Earth-616)      "Henry Jonat… Retu… "NO"  
    ##  2 http://marvel.wikia.com/Henry_Pym_(Earth-616)      "Henry Jonat… Retu… ""    
    ##  3 http://marvel.wikia.com/Henry_Pym_(Earth-616)      "Henry Jonat… Retu… ""    
    ##  4 http://marvel.wikia.com/Henry_Pym_(Earth-616)      "Henry Jonat… Retu… ""    
    ##  5 http://marvel.wikia.com/Henry_Pym_(Earth-616)      "Henry Jonat… Retu… ""    
    ##  6 http://marvel.wikia.com/Janet_van_Dyne_(Earth-616) "Janet van D… Retu… "YES" 
    ##  7 http://marvel.wikia.com/Janet_van_Dyne_(Earth-616) "Janet van D… Retu… ""    
    ##  8 http://marvel.wikia.com/Janet_van_Dyne_(Earth-616) "Janet van D… Retu… ""    
    ##  9 http://marvel.wikia.com/Janet_van_Dyne_(Earth-616) "Janet van D… Retu… ""    
    ## 10 http://marvel.wikia.com/Janet_van_Dyne_(Earth-616) "Janet van D… Retu… ""    
    ## # ℹ 855 more rows
…
